<mxfile host="634d6f88-6495-4040-a5ab-84ab579c9f4f" modified="2020-09-15T18:10:24.105Z" agent="5.0 (Windows NT 10.0; Win64; x64) AppleWebKit/537.36 (KHTML, like Gecko) Code/1.49.0 Chrome/83.0.4103.122 Electron/9.2.1 Safari/537.36" etag="vTQUwkW282j1wzGho_TN" version="13.1.3" pages="3">
    <diagram id="6hGFLwfOUW9BJ-s0fimq" name="cliente">
        <mxGraphModel dx="1121" dy="830" grid="1" gridSize="10" guides="1" tooltips="1" connect="1" arrows="1" fold="1" page="1" pageScale="1" pageWidth="827" pageHeight="1169" background="#ffffff" math="0" shadow="0">
            <root>
                <mxCell id="0"/>
                <mxCell id="1" parent="0"/>
                <mxCell id="25" value="Search" style="strokeWidth=1;shadow=0;dashed=0;align=center;html=1;shape=mxgraph.mockup.forms.searchBox;strokeColor=#999999;mainText=;strokeColor2=#008cff;fontColor=#666666;fontSize=17;align=left;spacingLeft=3;rounded=0;glass=0;comic=0;" parent="1" vertex="1">
                    <mxGeometry x="80" y="90" width="240" height="40" as="geometry"/>
                </mxCell>
                <mxCell id="31" value="Codigo Cliente" style="rounded=0;whiteSpace=wrap;html=1;shadow=0;glass=0;comic=0;" parent="1" vertex="1">
                    <mxGeometry x="80" y="90" width="120" height="40" as="geometry"/>
                </mxCell>
                <mxCell id="33" value="cuit&lt;br&gt;" style="rounded=0;whiteSpace=wrap;html=1;shadow=0;glass=0;comic=0;" parent="1" vertex="1">
                    <mxGeometry x="80" y="160" width="240" height="60" as="geometry"/>
                </mxCell>
                <mxCell id="36" style="edgeStyle=orthogonalEdgeStyle;rounded=0;orthogonalLoop=1;jettySize=auto;html=1;" parent="1" source="34" edge="1">
                    <mxGeometry relative="1" as="geometry">
                        <mxPoint x="270" y="280" as="targetPoint"/>
                    </mxGeometry>
                </mxCell>
                <mxCell id="34" value="razon Social&lt;br&gt;" style="rounded=0;whiteSpace=wrap;html=1;shadow=0;glass=0;comic=0;" parent="1" vertex="1">
                    <mxGeometry x="80" y="260" width="240" height="60" as="geometry"/>
                </mxCell>
                <mxCell id="38" value="Condicion Iva&lt;br&gt;" style="rounded=0;whiteSpace=wrap;html=1;shadow=0;glass=0;comic=0;" parent="1" vertex="1">
                    <mxGeometry x="80" y="360" width="240" height="50" as="geometry"/>
                </mxCell>
                <mxCell id="43" value="" style="edgeStyle=orthogonalEdgeStyle;rounded=0;orthogonalLoop=1;jettySize=auto;html=1;" parent="1" source="40" edge="1">
                    <mxGeometry relative="1" as="geometry">
                        <mxPoint x="547.5" y="470" as="targetPoint"/>
                    </mxGeometry>
                </mxCell>
                <mxCell id="45" value="" style="edgeStyle=orthogonalEdgeStyle;rounded=0;orthogonalLoop=1;jettySize=auto;html=1;" parent="1" source="40" edge="1">
                    <mxGeometry relative="1" as="geometry">
                        <mxPoint x="370" y="167.5" as="targetPoint"/>
                    </mxGeometry>
                </mxCell>
                <mxCell id="40" value="Cargar Nuevo" style="strokeWidth=1;shadow=0;dashed=0;align=center;html=1;shape=mxgraph.mockup.forms.rrect;rSize=0;fillColor=#eeeeee;strokeColor=#999999;gradientColor=#cccccc;align=left;spacingLeft=4;fontSize=17;fontColor=#666666;labelPosition=right;rounded=0;glass=0;comic=0;" parent="1" vertex="1">
                    <mxGeometry x="80" y="50" width="15" height="15" as="geometry"/>
                </mxCell>
            </root>
        </mxGraphModel>
    </diagram>
    <diagram id="zCdEGd8RLUMCnhqlZIiV" name="Carrito">
        &#xa;        
        <mxGraphModel dx="1121" dy="792" grid="1" gridSize="10" guides="1" tooltips="1" connect="1" arrows="1" fold="1" page="1" pageScale="1" pageWidth="827" pageHeight="1169" background="#ffffff" math="0" shadow="0">
            &#xa;            
            <root>
                &#xa;                
                <mxCell id="kjSI0eTh1ZROZcCSH75V-0"/>
                &#xa;                
                <mxCell id="kjSI0eTh1ZROZcCSH75V-1" parent="kjSI0eTh1ZROZcCSH75V-0"/>
                &#xa;                
                <mxCell id="kjSI0eTh1ZROZcCSH75V-13" value="Codigo-Nombre" style="rounded=0;whiteSpace=wrap;html=1;shadow=0;glass=0;comic=0;" parent="kjSI0eTh1ZROZcCSH75V-1" vertex="1">
                    &#xa;                    
                    <mxGeometry x="20" y="115" width="280" height="60" as="geometry"/>
                    &#xa;                
                </mxCell>
                &#xa;                
                <mxCell id="kjSI0eTh1ZROZcCSH75V-14" value="Codigo-Nombre" style="rounded=0;whiteSpace=wrap;html=1;shadow=0;glass=0;comic=0;" parent="kjSI0eTh1ZROZcCSH75V-1" vertex="1">
                    &#xa;                    
                    <mxGeometry x="20" y="195" width="280" height="60" as="geometry"/>
                    &#xa;                
                </mxCell>
                &#xa;                
                <mxCell id="kjSI0eTh1ZROZcCSH75V-15" value="Codigo-Nombre" style="rounded=0;whiteSpace=wrap;html=1;shadow=0;glass=0;comic=0;" parent="kjSI0eTh1ZROZcCSH75V-1" vertex="1">
                    &#xa;                    
                    <mxGeometry x="20" y="275" width="280" height="60" as="geometry"/>
                    &#xa;                
                </mxCell>
                &#xa;                
                <mxCell id="kjSI0eTh1ZROZcCSH75V-16" value="Codigo-Nombre&lt;span&gt;&lt;br&gt;&lt;/span&gt;" style="rounded=0;whiteSpace=wrap;html=1;shadow=0;glass=0;comic=0;" parent="kjSI0eTh1ZROZcCSH75V-1" vertex="1">
                    &#xa;                    
                    <mxGeometry x="20" y="355" width="280" height="60" as="geometry"/>
                    &#xa;                
                </mxCell>
                &#xa;                
                <mxCell id="kjSI0eTh1ZROZcCSH75V-21" value="PRODUCTOS" style="text;html=1;align=center;verticalAlign=middle;resizable=0;points=[];autosize=1;fontColor=#ffffff;fillColor=#0050ef;strokeColor=#001DBC;" parent="kjSI0eTh1ZROZcCSH75V-1" vertex="1">
                    &#xa;                    
                    <mxGeometry x="20" y="40" width="90" height="20" as="geometry"/>
                    &#xa;                
                </mxCell>
                &#xa;                
                <mxCell id="kjSI0eTh1ZROZcCSH75V-30" value="" style="edgeStyle=orthogonalEdgeStyle;rounded=0;orthogonalLoop=1;jettySize=auto;html=1;fontColor=#006600;" parent="kjSI0eTh1ZROZcCSH75V-1" source="kjSI0eTh1ZROZcCSH75V-28" edge="1">
                    &#xa;                    
                    <mxGeometry relative="1" as="geometry">
                        &#xa;                        
                        <mxPoint x="585" y="140" as="targetPoint"/>
                        &#xa;                    
                    </mxGeometry>
                    &#xa;                
                </mxCell>
                &#xa;                
                <mxCell id="kjSI0eTh1ZROZcCSH75V-28" value="DETALLE PRODUCTO" style="text;html=1;align=center;verticalAlign=middle;resizable=0;points=[];autosize=1;fontColor=#ffffff;fillColor=#0050ef;strokeColor=#001DBC;" parent="kjSI0eTh1ZROZcCSH75V-1" vertex="1">
                    &#xa;                    
                    <mxGeometry x="350" y="40" width="140" height="20" as="geometry"/>
                    &#xa;                
                </mxCell>
                &#xa;                
                <mxCell id="kjSI0eTh1ZROZcCSH75V-32" value="Nombre" style="rounded=0;whiteSpace=wrap;html=1;shadow=0;glass=0;comic=0;" parent="kjSI0eTh1ZROZcCSH75V-1" vertex="1">
                    &#xa;                    
                    <mxGeometry x="360" y="70" width="280" height="60" as="geometry"/>
                    &#xa;                
                </mxCell>
                &#xa;                
                <mxCell id="kjSI0eTh1ZROZcCSH75V-33" value="Precios" style="strokeWidth=1;shadow=0;dashed=0;align=center;html=1;shape=mxgraph.mockup.forms.comboBox;strokeColor=#999999;fillColor=#ddeeff;align=left;fillColor2=#aaddff;mainText=;fontColor=#666666;fontSize=17;spacingLeft=3;rounded=0;glass=0;comic=0;" parent="kjSI0eTh1ZROZcCSH75V-1" vertex="1">
                    &#xa;                    
                    <mxGeometry x="480" y="290" width="160" height="30" as="geometry"/>
                    &#xa;                
                </mxCell>
                &#xa;                
                <mxCell id="kjSI0eTh1ZROZcCSH75V-34" value="Kilos" style="rounded=0;whiteSpace=wrap;html=1;shadow=0;glass=0;comic=0;" parent="kjSI0eTh1ZROZcCSH75V-1" vertex="1">
                    &#xa;                    
                    <mxGeometry x="360" y="140" width="280" height="60" as="geometry"/>
                    &#xa;                
                </mxCell>
                &#xa;                
                <mxCell id="kjSI0eTh1ZROZcCSH75V-35" value="Cantidad" style="rounded=0;whiteSpace=wrap;html=1;shadow=0;glass=0;comic=0;" parent="kjSI0eTh1ZROZcCSH75V-1" vertex="1">
                    &#xa;                    
                    <mxGeometry x="360" y="210" width="280" height="60" as="geometry"/>
                    &#xa;                
                </mxCell>
                &#xa;                
                <mxCell id="kjSI0eTh1ZROZcCSH75V-36" value="Aceptar (Precio total)" style="rounded=0;whiteSpace=wrap;html=1;shadow=0;glass=0;comic=0;" parent="kjSI0eTh1ZROZcCSH75V-1" vertex="1">
                    &#xa;                    
                    <mxGeometry x="520" y="350" width="190" height="60" as="geometry"/>
                    &#xa;                
                </mxCell>
                &#xa;                
                <mxCell id="kjSI0eTh1ZROZcCSH75V-37" value="Volver" style="rounded=0;whiteSpace=wrap;html=1;shadow=0;glass=0;comic=0;" parent="kjSI0eTh1ZROZcCSH75V-1" vertex="1">
                    &#xa;                    
                    <mxGeometry x="360" y="350" width="120" height="60" as="geometry"/>
                    &#xa;                
                </mxCell>
                &#xa;                
                <mxCell id="BRVJLEkFNGoV7JISpMVM-0" value="Search" style="strokeWidth=1;shadow=0;dashed=0;align=center;html=1;shape=mxgraph.mockup.forms.searchBox;strokeColor=#999999;mainText=;strokeColor2=#008cff;fontColor=#666666;fontSize=17;align=left;spacingLeft=3;" parent="kjSI0eTh1ZROZcCSH75V-1" vertex="1">
                    &#xa;                    
                    <mxGeometry x="20" y="70" width="280" height="30" as="geometry"/>
                    &#xa;                
                </mxCell>
                &#xa;            
            </root>
            &#xa;        
        </mxGraphModel>
        &#xa;    
    </diagram>
    <diagram id="2hWbOPp1f6lmaDoAR0W9" name="Resumen">
        <mxGraphModel dx="1121" dy="830" grid="1" gridSize="10" guides="1" tooltips="1" connect="1" arrows="1" fold="1" page="1" pageScale="1" pageWidth="827" pageHeight="1169" background="#ffffff" math="0" shadow="0">
            <root>
                <mxCell id="WlV9MsoxyD2ga-zyRM3H-0"/>
                <mxCell id="WlV9MsoxyD2ga-zyRM3H-1" parent="WlV9MsoxyD2ga-zyRM3H-0"/>
                <mxCell id="WlV9MsoxyD2ga-zyRM3H-3" value="&lt;font color=&quot;#ffffff&quot;&gt;Razon Social&lt;/font&gt;" style="rounded=0;whiteSpace=wrap;html=1;shadow=0;glass=0;comic=0;fontColor=#006600;" parent="WlV9MsoxyD2ga-zyRM3H-1" vertex="1">
                    <mxGeometry x="200" y="80" width="240" height="40" as="geometry"/>
                </mxCell>
                <mxCell id="WlV9MsoxyD2ga-zyRM3H-4" value="Detalle Del Pedido&lt;br&gt;" style="text;html=1;align=center;verticalAlign=middle;resizable=0;points=[];autosize=1;fontColor=#006600;" parent="WlV9MsoxyD2ga-zyRM3H-1" vertex="1">
                    <mxGeometry x="200" y="135" width="110" height="20" as="geometry"/>
                </mxCell>
                <mxCell id="WlV9MsoxyD2ga-zyRM3H-5" value="" style="rounded=0;whiteSpace=wrap;html=1;shadow=0;glass=0;comic=0;fontColor=#FFFFFF;" parent="WlV9MsoxyD2ga-zyRM3H-1" vertex="1">
                    <mxGeometry x="190" y="205" width="380" height="120" as="geometry"/>
                </mxCell>
                <mxCell id="WlV9MsoxyD2ga-zyRM3H-6" value="Producto" style="rounded=0;whiteSpace=wrap;html=1;shadow=0;glass=0;comic=0;fontColor=#FFFFFF;" parent="WlV9MsoxyD2ga-zyRM3H-1" vertex="1">
                    <mxGeometry x="210" y="210" width="210" height="30" as="geometry"/>
                </mxCell>
                <mxCell id="WlV9MsoxyD2ga-zyRM3H-7" value="Cantidad" style="rounded=0;whiteSpace=wrap;html=1;shadow=0;glass=0;comic=0;fontColor=#FFFFFF;" parent="WlV9MsoxyD2ga-zyRM3H-1" vertex="1">
                    <mxGeometry x="210" y="250" width="90" height="30" as="geometry"/>
                </mxCell>
                <mxCell id="WlV9MsoxyD2ga-zyRM3H-8" value="Kilos" style="rounded=0;whiteSpace=wrap;html=1;shadow=0;glass=0;comic=0;fontColor=#FFFFFF;" parent="WlV9MsoxyD2ga-zyRM3H-1" vertex="1">
                    <mxGeometry x="310" y="250" width="90" height="30" as="geometry"/>
                </mxCell>
                <mxCell id="WlV9MsoxyD2ga-zyRM3H-9" value="Precio Unitario" style="rounded=0;whiteSpace=wrap;html=1;shadow=0;glass=0;comic=0;fontColor=#FFFFFF;" parent="WlV9MsoxyD2ga-zyRM3H-1" vertex="1">
                    <mxGeometry x="210" y="290" width="90" height="30" as="geometry"/>
                </mxCell>
                <mxCell id="WlV9MsoxyD2ga-zyRM3H-10" value="Total" style="rounded=0;whiteSpace=wrap;html=1;shadow=0;glass=0;comic=0;fontColor=#FFFFFF;" parent="WlV9MsoxyD2ga-zyRM3H-1" vertex="1">
                    <mxGeometry x="310" y="290" width="90" height="30" as="geometry"/>
                </mxCell>
                <mxCell id="WlV9MsoxyD2ga-zyRM3H-11" value="Eliminar" style="rounded=0;whiteSpace=wrap;html=1;shadow=0;glass=0;comic=0;fontColor=#FFFFFF;" parent="WlV9MsoxyD2ga-zyRM3H-1" vertex="1">
                    <mxGeometry x="430" y="240" width="90" height="30" as="geometry"/>
                </mxCell>
                <mxCell id="WlV9MsoxyD2ga-zyRM3H-12" value="Agregar Mas" style="rounded=0;whiteSpace=wrap;html=1;shadow=0;glass=0;comic=0;fontColor=#FFFFFF;" parent="WlV9MsoxyD2ga-zyRM3H-1" vertex="1">
                    <mxGeometry x="345" y="130" width="90" height="30" as="geometry"/>
                </mxCell>
                <mxCell id="lqAnqXhcVKUuWUyDlfgO-0" value="Editar" style="rounded=0;whiteSpace=wrap;html=1;shadow=0;glass=0;comic=0;fontColor=#FFFFFF;" parent="WlV9MsoxyD2ga-zyRM3H-1" vertex="1">
                    <mxGeometry x="430" y="280" width="90" height="30" as="geometry"/>
                </mxCell>
                <mxCell id="lqAnqXhcVKUuWUyDlfgO-1" value="Total del pedido" style="rounded=0;whiteSpace=wrap;html=1;shadow=0;glass=0;comic=0;fontColor=#FFFFFF;" parent="WlV9MsoxyD2ga-zyRM3H-1" vertex="1">
                    <mxGeometry x="200" y="170" width="240" height="30" as="geometry"/>
                </mxCell>
            </root>
        </mxGraphModel>
    </diagram>
</mxfile>